Memory usage (MB): 2.375 (process), 0.03125 (tree)
Memory usage (MB): 2.43359 (process), 0.0898438 (tree)
Tree construction time (us): 168
Average access time (ns): 881.333
Average rank time (ns): 420
Average select time (ns): 570.111
Memory usage (MB): 2.46875 (process), 0.125 (tree)
