Memory usage (MB): 2.67578 (process), 0.0351563 (tree)
Memory usage (MB): 2.73438 (process), 0.09375 (tree)
Tree construction time (us): 12763
Average access time (ns): 1902.9
Average rank time (ns): 777.313
Average select time (ns): 1119.02
Memory usage (MB): 2.87891 (process), 0.238281 (tree)
