Memory usage (MB): 2.43359 (process), 0.03125 (tree)
Memory usage (MB): 2.49219 (process), 0.0898438 (tree)
Tree construction time (us): 148
Average access time (ns): 414.889
Average rank time (ns): 155.444
Average select time (ns): 373.3
Memory usage (MB): 2.53125 (process), 0.128906 (tree)
