Memory usage (MB): 2.37891 (process), 0.0390625 (tree)
Memory usage (MB): 2.4375 (process), 0.0976563 (tree)
Tree construction time (us): 287
Average access time (ns): 1135.21
Average rank time (ns): 508
Average select time (ns): 608.067
Memory usage (MB): 2.47266 (process), 0.132813 (tree)
